Appendix A — Model building and hypothesis tests – Is latitude associated with chronotype?
…
#> Warning in grid.Call(C_textBounds, as.graphicsAnnot(x$label), x$x, x$y, :
#> font width unknown for character 0x30 in encoding cp1252
#> Warning in grid.Call(C_textBounds, as.graphicsAnnot(x$label), x$x, x$y, :
#> font width unknown for character 0x30 in encoding cp1252
#> Warning in grid.Call(C_textBounds, as.graphicsAnnot(x$label), x$x, x$y, :
#> font width unknown for character 0x30 in encoding cp1252
#> Warning in grid.Call(C_textBounds, as.graphicsAnnot(x$label), x$x, x$y, :
#> font width unknown for character 0x30 in encoding cp1252
#> Warning in grid.Call(C_textBounds, as.graphicsAnnot(x$label), x$x, x$y, :
#> font width unknown for character 0x30 in encoding cp1252
#> Warning in grid.Call(C_textBounds, as.graphicsAnnot(x$label), x$x, x$y, :
#> font width unknown for character 0x30 in encoding cp1252
#> Warning in grid.Call(C_textBounds, as.graphicsAnnot(x$label), x$x, x$y, :
#> font width unknown for character 0x36 in encoding cp1252
#> # A tibble: 14 × 2
#>   name    value                         
#>   <chr>   <chr>                         
#> 1 n       76743                         
#> 2 n_rm_na 76743                         
#> 3 n_na    0                             
#> 4 mean    1.64075932160361e-23          
#> 5 var     0.0000000000000176843384735687
#> 6 sd      0.000000132982474309845       
#> # ℹ 8 more rows
…
