Ecology of sleep and circadian phenotypes of the Brazilian population - Appendix C — Chapter 4 supplemental material
…
stats <- data |> 
  magrittr::extract2(col) |> 
  test_normality(
    name = col, 
    threshold = hms::parse_hms("12:00:00"), 
    remove_outliers = FALSE, 
    iqr_mult = 1.5, 
    log_transform = FALSE,
    density_line = TRUE, 
    text_size = env_vars$base_size,
    print = TRUE
  ) |>
  rutils:::shush()
#> # A tibble: 14 × 2
#>   name    value           
#>   <chr>   <chr>           
#> 1 n       79198           
#> 2 n_rm_na 79198           
#> 3 n_na    0               
#> 4 mean    31.9838074965417
#> 5 var     85.2414919292643
#> 6 sd      9.23263190695179
#> # ℹ 8 more rows
…
