Appendix B — Data visualizations – Is latitude associated with chronotype?
…
stats <- 
  data |> 
  magrittr::extract2(col) |> 
  test_normality(
    name = col, 
    threshold = hms::parse_hms("12:00:00"), 
    remove_outliers = FALSE, 
    iqr_mult = 1.5, 
    log_transform = FALSE,
    density_line = TRUE, 
    text_size = env_vars$base_size,
    print = TRUE
  ) |>
  rutils::shush()
#> # A tibble: 14 × 2
#>   name    value           
#>   <chr>   <chr>           
#> 1 n       79197           
#> 2 n_rm_na 79197           
#> 3 n_na    0               
#> 4 mean    31.9837166601428
#> 5 var     85.2419147742318
#> 6 sd      9.23265480640491
#> # ℹ 8 more rows
…
