Ecology of sleep and circadian phenotypes of the Brazilian population - Appendix E — Appendice: Chapter 6 supplemental material
…
library(broom)
library(dplyr)
library(tidyr)

# ?broom::glance.lm
broom::glance(res_model) |> tidyr::pivot_longer(cols = dplyr::everything())
#> # A tibble: 12 × 2
#>   name            value
#>   <chr>           <dbl>
#> 1 r.squared     5.37e-2
#> 2 adj.r.squared 5.37e-2
#> 3 sigma         1.33e-7
#> 4 statistic     2.18e+3
#> 5 p.value       0      
#> 6 df            2   e+0
#> # ℹ 6 more rows
…
E.5.1 Residual diagnostics

Normality and zero mean error assumption.

library(here)
library(stats)

source(here::here("R/stats_sum.R"))

res_model |>
  stats::residuals() |>
  stats_sum()
#> # A tibble: 14 × 2
#>   name    value                         
#>   <chr>   <chr>                         
#> 1 n       76744                         
#> 2 n_rm_na 76744                         
#> 3 n_na    0                             
#> 4 mean    6.60699976667332e-23          
#> 5 var     0.0000000000000176852866826985
#> 6 sd      0.000000132986039427823       
#> # ℹ 8 more rows

library(fBasics)
library(moments)

source(here::here("R/normality_sum.R"))

# ?moments::agostino.test
# ?fBasics::dagoTest()

res_model |>
  stats::residuals() |>
  normality_sum()
#> # A tibble: 11 × 2
#>   test                       p_value
#>   <chr>                        <dbl>
#> 1 Anderson-Darling          3.7 e-24
#> 2 Bonett-Seier              0       
#> 3 Cramer-von Mises          7.37e-10
#> 4 D'Agostino Omnibus Test  NA       
#> 5 D'Agostino Skewness Test  2.34e- 1
#> 6 D'Agostino Kurtosis Test NA       
#> # ℹ 5 more rows
…
library(broom)
library(dplyr)
library(tidyr)

# ?broom::glance.lm
broom::glance(full_model) |>
  tidyr::pivot_longer(cols = dplyr::everything())
#> # A tibble: 12 × 2
#>   name            value
#>   <chr>           <dbl>
#> 1 r.squared     6.07e-2
#> 2 adj.r.squared 6.07e-2
#> 3 sigma         1.32e-7
#> 4 statistic     1.65e+3
#> 5 p.value       0      
#> 6 df            3   e+0
#> # ℹ 6 more rows
…
E.6.1 Residual diagnostics

Normality and zero mean error assumption.

library(here)
library(stats)

source(here::here("R/stats_sum.R"))

full_model |>
  stats::residuals() |>
  stats_sum()
#> # A tibble: 14 × 2
#>   name    value                         
#>   <chr>   <chr>                         
#> 1 n       76744                         
#> 2 n_rm_na 76744                         
#> 3 n_na    0                             
#> 4 mean    4.85272564733669e-24          
#> 5 var     0.0000000000000175551361304561
#> 6 sd      0.00000013249579665203        
#> # ℹ 8 more rows

library(here)
library(stats)

source(here::here("R/normality_sum.R"))

full_model |>
  stats::residuals() |>
  normality_sum()
#> # A tibble: 11 × 2
#>   test                       p_value
#>   <chr>                        <dbl>
#> 1 Anderson-Darling          3.7 e-24
#> 2 Bonett-Seier              0       
#> 3 Cramer-von Mises          7.37e-10
#> 4 D'Agostino Omnibus Test  NA       
#> 5 D'Agostino Skewness Test  9.41e- 1
#> 6 D'Agostino Kurtosis Test NA       
#> # ℹ 5 more rows
…
source(here::here("R/stats_sum.R"))

group_1 <- "Amapá" # Boa vista (0° 2′ 18.84″ N, 51° 3′ 59.1″ W)

msf_sc_group_1 <- 
  data |>
  dplyr::filter(state == group_1) |>
  magrittr::extract2("msf_sc")

stats_sum_group_1 <- 
  data |> 
  dplyr::filter(state == group_1) |>
  magrittr::extract2("msf_sc") |> 
  stats_sum()
#> # A tibble: 14 × 2
#>   name    value           
#>   <chr>   <chr>           
#> 1 n       113             
#> 2 n_rm_na 113             
#> 3 n_na    0               
#> 4 mean    103564.475347661
#> 5 var     28720417.6933099
#> 6 sd      5359.14337308771
#> # ℹ 8 more rows
…
source(here::here("R/stats_sum.R"))

group_2 <- "Rio Grande do Sul" # Porto Alegre (30° 01' 58" S, 51° 13' 48" O)

msf_sc_group_2 <- data |>
  dplyr::filter(state == group_2) |>
  magrittr::extract2("msf_sc")

stats_sum_group_2 <- 
  data |> 
  dplyr::filter(state == group_2) |>
  magrittr::extract2("msf_sc") |> 
  stats_sum()
#> # A tibble: 14 × 2
#>   name    value           
#>   <chr>   <chr>           
#> 1 n       4097            
#> 2 n_rm_na 4097            
#> 3 n_na    0               
#> 4 mean    103651.485407441
#> 5 var     26397872.5737977
#> 6 sd      5137.88600241361
#> # ℹ 8 more rows
…
